…
# Create occurrence cube
grid_designation(
  observations = observations_sf,
  grid = grid_df,
  seed = 123
)
#> Simple feature collection with 32 features and 4 fields
#> Geometry type: POLYGON
#> Dimension:     XY
#> Bounding box:  xmin: 3841035 ymin: 3110281 xmax: 3841835 ymax: 3111881
#> Projected CRS: ETRS89-extended / LAEA Europe
#> # A tibble: 32 × 5
#>    time_point cell_code     n min_coord_uncertainty                     geometry
#>  *      <dbl> <chr>     <int>                 <dbl>                <POLYGON [m]>
#>  1          1 26            1                  40.3 ((3841235 3111481, 3841435 …
#>  2          1 29            1                  28.6 ((3841035 3111681, 3841235 …
#>  3          1 3             1                  69.5 ((3841435 3110281, 3841635 …
#>  4          1 4             1                  65.0 ((3841635 3110281, 3841835 …
#>  5          1 1             0                  NA   ((3841035 3110281, 3841235 …
#>  6          1 2             0                  NA   ((3841235 3110281, 3841435 …
#>  7          1 5             0                  NA   ((3841035 3110481, 3841235 …
#>  8          1 6             0                  NA   ((3841235 3110481, 3841435 …
#>  9          1 7             0                  NA   ((3841435 3110481, 3841635 …
#> 10          1 8             0                  NA   ((3841635 3110481, 3841835 …
#> # ℹ 22 more rows
```
