Observations to grid designation to create a data cube — grid_designation • gcube
…
# Create occurrence cube
grid_designation(
  observations = observations_sf,
  grid = grid_df,
  seed = 123
)
#> Simple feature collection with 30 features and 4 fields
#> Geometry type: POLYGON
#> Dimension:     XY
#> Bounding box:  xmin: 3840994 ymin: 3110833 xmax: 3841994 ymax: 3112033
#> Projected CRS: ETRS89-extended / LAEA Europe
#> # A tibble: 30 × 5
#>    time_point id        n min_coord_uncertainty                         geometry
#>  *      <dbl> <chr> <int>                 <dbl>                    <POLYGON [m]>
#>  1          1 12        1                  16.3 ((3841194 3111233, 3841394 3111…
#>  2          1 26        1                  33.9 ((3840994 3111833, 3841194 3111…
#>  3          1 5         1                  73.8 ((3841794 3110833, 3841994 3110…
#>  4          1 6         1                  47.8 ((3840994 3111033, 3841194 3111…
#>  5          1 1         0                  NA   ((3840994 3110833, 3841194 3110…
#>  6          1 2         0                  NA   ((3841194 3110833, 3841394 3110…
#>  7          1 3         0                  NA   ((3841394 3110833, 3841594 3110…
#>  8          1 4         0                  NA   ((3841594 3110833, 3841794 3110…
#>  9          1 7         0                  NA   ((3841194 3111033, 3841394 3111…
#> 10          1 8         0                  NA   ((3841394 3111033, 3841594 3111…
#> # ℹ 20 more rows
…
